\babel@toc {portuges}{}
\beamer@sectionintoc {1}{Introdu\IeC {\c c}\IeC {\~a}o}{3}{0}{1}
\beamer@sectionintoc {2}{Como Funciona}{6}{0}{2}
\beamer@subsectionintoc {2}{1}{Gerando um Certificado}{6}{0}{2}
\beamer@subsectionintoc {2}{2}{Key servers}{7}{0}{2}
\beamer@sectionintoc {3}{Vulnerabilidades}{8}{0}{3}
\beamer@sectionintoc {4}{Caso de Uso}{9}{0}{4}
\beamer@sectionintoc {5}{Conclus\IeC {\~a}o}{10}{0}{5}
\beamer@sectionintoc {6}{Refer\IeC {\^e}ncias}{11}{0}{6}
